---
http_interactions:
- request:
    method: get
    uri: https://api.uploadcare.com/files/?limit=2
    body:
      encoding: UTF-8
      string: ''
    headers:
      Content-Type:
      - application/json
      Accept:
      - application/vnd.uploadcare-v0.5+json
      Date:
      - Thu, 30 Jan 2020 12:35:45 GMT
      Authorization:
      - Uploadcare c8499ee6dc44194c00d2:632d213b6995079665c30e7d72ca8afacbd3d57e
      Connection:
      - close
      Host:
      - api.uploadcare.com
      User-Agent:
      - http.rb/4.3.0
  response:
    status:
      code: 200
      message: OK
    headers:
      Date:
      - Thu, 30 Jan 2020 12:35:46 GMT
      Content-Type:
      - application/vnd.uploadcare-v0.5+json
      Content-Length:
      - '1401'
      Connection:
      - close
      Server:
      - nginx
      X-Xss-Protection:
      - 1; mode=block
      X-Content-Type-Options:
      - nosniff
      Vary:
      - Accept
      Allow:
      - GET, HEAD, OPTIONS, POST
      Access-Control-Allow-Origin:
      - https://uploadcare.com
      X-Frame-Options:
      - SAMEORIGIN
    body:
      encoding: ASCII-8BIT
      string: '{"next":"https://api.uploadcare.com/files/?from=2020-01-16T15%3A02%3A30.308894%2B00%3A00&limit=2&offset=0","previous":null,"total":16,"per_page":2,"results":[{"datetime_removed":null,"datetime_stored":"2020-01-16T14:48:46.897379Z","datetime_uploaded":"2020-01-16T14:48:46.776894Z","image_info":{"color_mode":"RGBA","orientation":null,"format":"PNG","sequence":false,"height":300,"width":300,"geo_location":null,"datetime_original":null,"dpi":[72,72]},"is_image":true,"is_ready":true,"mime_type":"image/png","original_file_url":"https://ucarecdn.com/bf3aba03-2213-46d0-83f0-4a240002f3ec/Test.png","original_filename":"Test.png","size":3118,"url":"https://api.uploadcare.com/files/bf3aba03-2213-46d0-83f0-4a240002f3ec/","uuid":"bf3aba03-2213-46d0-83f0-4a240002f3ec","source":null},{"datetime_removed":null,"datetime_stored":"2020-01-16T15:02:30.430281Z","datetime_uploaded":"2020-01-16T15:02:30.308894Z","image_info":{"color_mode":"RGBA","orientation":null,"format":"PNG","sequence":false,"height":300,"width":300,"geo_location":null,"datetime_original":null,"dpi":[72,72]},"is_image":true,"is_ready":true,"mime_type":"image/png","original_file_url":"https://ucarecdn.com/c724feac-86f7-447c-b2d6-b0ced220173d/Test.png","original_filename":"Test.png","size":3118,"url":"https://api.uploadcare.com/files/c724feac-86f7-447c-b2d6-b0ced220173d/","uuid":"c724feac-86f7-447c-b2d6-b0ced220173d","source":null}]}'
    http_version: 
  recorded_at: Thu, 30 Jan 2020 12:35:46 GMT
- request:
    method: get
    uri: https://api.uploadcare.com/files/?limit=2
    body:
      encoding: UTF-8
      string: ''
    headers:
      Content-Type:
      - application/json
      Accept:
      - application/vnd.uploadcare-v0.5+json
      Date:
      - Thu, 30 Jan 2020 12:35:46 GMT
      Authorization:
      - Uploadcare c8499ee6dc44194c00d2:2f8fd213d8dd862cf9eae984bd7c56869ea8321d
      Connection:
      - close
      Host:
      - api.uploadcare.com
      User-Agent:
      - http.rb/4.3.0
  response:
    status:
      code: 200
      message: OK
    headers:
      Date:
      - Thu, 30 Jan 2020 12:35:47 GMT
      Content-Type:
      - application/vnd.uploadcare-v0.5+json
      Content-Length:
      - '1401'
      Connection:
      - close
      Server:
      - nginx
      X-Xss-Protection:
      - 1; mode=block
      X-Content-Type-Options:
      - nosniff
      Vary:
      - Accept
      Allow:
      - GET, HEAD, OPTIONS, POST
      Access-Control-Allow-Origin:
      - https://uploadcare.com
      X-Frame-Options:
      - SAMEORIGIN
    body:
      encoding: ASCII-8BIT
      string: '{"next":"https://api.uploadcare.com/files/?from=2020-01-16T15%3A02%3A30.308894%2B00%3A00&limit=2&offset=0","previous":null,"total":16,"per_page":2,"results":[{"datetime_removed":null,"datetime_stored":"2020-01-16T14:48:46.897379Z","datetime_uploaded":"2020-01-16T14:48:46.776894Z","image_info":{"color_mode":"RGBA","orientation":null,"format":"PNG","sequence":false,"height":300,"width":300,"geo_location":null,"datetime_original":null,"dpi":[72,72]},"is_image":true,"is_ready":true,"mime_type":"image/png","original_file_url":"https://ucarecdn.com/bf3aba03-2213-46d0-83f0-4a240002f3ec/Test.png","original_filename":"Test.png","size":3118,"url":"https://api.uploadcare.com/files/bf3aba03-2213-46d0-83f0-4a240002f3ec/","uuid":"bf3aba03-2213-46d0-83f0-4a240002f3ec","source":null},{"datetime_removed":null,"datetime_stored":"2020-01-16T15:02:30.430281Z","datetime_uploaded":"2020-01-16T15:02:30.308894Z","image_info":{"color_mode":"RGBA","orientation":null,"format":"PNG","sequence":false,"height":300,"width":300,"geo_location":null,"datetime_original":null,"dpi":[72,72]},"is_image":true,"is_ready":true,"mime_type":"image/png","original_file_url":"https://ucarecdn.com/c724feac-86f7-447c-b2d6-b0ced220173d/Test.png","original_filename":"Test.png","size":3118,"url":"https://api.uploadcare.com/files/c724feac-86f7-447c-b2d6-b0ced220173d/","uuid":"c724feac-86f7-447c-b2d6-b0ced220173d","source":null}]}'
    http_version: 
  recorded_at: Thu, 30 Jan 2020 12:35:47 GMT
recorded_with: VCR 5.0.0
