---
http_interactions:
- request:
    method: get
    uri: https://api.uploadcare.com/files/?limit=2&ordering=-datetime_uploaded
    body:
      encoding: UTF-8
      string: ''
    headers:
      Content-Type:
      - application/json
      Accept:
      - application/vnd.uploadcare-v0.7+json
      User-Agent:
      - UploadcareRuby/4.0.0/5d5bb5639e3f2df33674 (Ruby/2.6.0)
      Date:
      - Sun, 02 Oct 2022 10:26:37 GMT
      Authorization:
      - Uploadcare 5d5bb5639e3f2df33674:4230a586b79c615ea88c4230588ad22900f1b62d
      Connection:
      - close
      Host:
      - api.uploadcare.com
  response:
    status:
      code: 200
      message: OK
    headers:
      Date:
      - Sun, 02 Oct 2022 10:26:38 GMT
      Content-Type:
      - application/vnd.uploadcare-v0.7+json
      Content-Length:
      - '1656'
      Connection:
      - close
      Server:
      - nginx
      Warning:
      - '199 Miscellaneous warning: Please use API version 0.5, not 0.7'
      Access-Control-Allow-Origin:
      - https://uploadcare.com
      Vary:
      - Accept
      Allow:
      - GET, HEAD, OPTIONS
      X-Xss-Protection:
      - 1; mode=block
      X-Content-Type-Options:
      - nosniff
      X-Uploadcare-Request-Id:
      - 60b2c300-5e10-4811-99ff-0d9cf5bb90e4
      X-Frame-Options:
      - SAMEORIGIN
      X-Robots-Tag:
      - noindex, nofollow, nosnippet, noarchive
    body:
      encoding: ASCII-8BIT
      string: '{"next":"https://api.uploadcare.com/files/?limit=2&ordering=-datetime_uploaded&from=2022-09-28T15%3A53%3A36.082137%2B00%3A00&offset=0","previous":null,"total":129,"totals":{"removed":0,"stored":129,"unstored":0},"per_page":2,"results":[{"datetime_removed":null,"datetime_stored":"2022-10-01T08:31:32.834879Z","datetime_uploaded":"2022-10-01T08:31:32.730675Z","is_image":true,"is_ready":true,"mime_type":"image/png","original_file_url":"https://ucarecdn.com/8f0a2a28-3ed7-481e-b415-ee3cce982aaa/image.png","original_filename":"image.png","size":86745,"url":"https://api.uploadcare.com/files/8f0a2a28-3ed7-481e-b415-ee3cce982aaa/","uuid":"8f0a2a28-3ed7-481e-b415-ee3cce982aaa","variations":null,"content_info":{"mime":{"mime":"image/png","type":"image","subtype":"png"},"image":{"dpi":null,"width":536,"format":"PNG","height":354,"sequence":false,"color_mode":"RGBA","orientation":null,"geo_location":null,"datetime_original":null}},"metadata":{}},{"datetime_removed":null,"datetime_stored":"2022-09-28T15:53:36.188117Z","datetime_uploaded":"2022-09-28T15:53:36.082137Z","is_image":true,"is_ready":true,"mime_type":"image/png","original_file_url":"https://ucarecdn.com/4654a098-ddef-4157-98f2-9c902b699bd8/image.png","original_filename":"image.png","size":4659,"url":"https://api.uploadcare.com/files/4654a098-ddef-4157-98f2-9c902b699bd8/","uuid":"4654a098-ddef-4157-98f2-9c902b699bd8","variations":null,"content_info":{"mime":{"mime":"image/png","type":"image","subtype":"png"},"image":{"dpi":null,"width":274,"format":"PNG","height":367,"sequence":false,"color_mode":"RGBA","orientation":null,"geo_location":null,"datetime_original":null}},"metadata":{}}]}'
  recorded_at: Sun, 02 Oct 2022 10:26:38 GMT
- request:
    method: get
    uri: https://api.uploadcare.com/files/?from=2022-09-28T15:53:36.082137%2B00:00&limit=2&offset=0&ordering=-datetime_uploaded
    body:
      encoding: UTF-8
      string: ''
    headers:
      Content-Type:
      - application/json
      Accept:
      - application/vnd.uploadcare-v0.7+json
      User-Agent:
      - UploadcareRuby/4.0.0/5d5bb5639e3f2df33674 (Ruby/2.6.0)
      Date:
      - Sun, 02 Oct 2022 10:26:38 GMT
      Authorization:
      - Uploadcare 5d5bb5639e3f2df33674:0d7bb1c3580c5d56e4f30404e5b27f246d1febb5
      Connection:
      - close
      Host:
      - api.uploadcare.com
  response:
    status:
      code: 200
      message: OK
    headers:
      Date:
      - Sun, 02 Oct 2022 10:26:38 GMT
      Content-Type:
      - application/vnd.uploadcare-v0.7+json
      Content-Length:
      - '1777'
      Connection:
      - close
      Server:
      - nginx
      Warning:
      - '199 Miscellaneous warning: Please use API version 0.5, not 0.7'
      Access-Control-Allow-Origin:
      - https://uploadcare.com
      Vary:
      - Accept
      Allow:
      - GET, HEAD, OPTIONS
      X-Xss-Protection:
      - 1; mode=block
      X-Content-Type-Options:
      - nosniff
      X-Uploadcare-Request-Id:
      - 380b512a-4f82-48da-b82b-7d5830b6ff0e
      X-Frame-Options:
      - SAMEORIGIN
      X-Robots-Tag:
      - noindex, nofollow, nosnippet, noarchive
    body:
      encoding: ASCII-8BIT
      string: '{"next":"https://api.uploadcare.com/files/?limit=2&ordering=-datetime_uploaded&from=2022-09-23T11%3A29%3A25.213425%2B00%3A00&offset=0","previous":"https://api.uploadcare.com/files/?limit=2&ordering=-datetime_uploaded&offset=0&to=2022-09-28T15%3A21%3A26.699767%2B00%3A00","total":129,"totals":{"removed":0,"stored":129,"unstored":0},"per_page":2,"results":[{"datetime_removed":null,"datetime_stored":"2022-09-28T15:21:26.793937Z","datetime_uploaded":"2022-09-28T15:21:26.699767Z","is_image":true,"is_ready":true,"mime_type":"image/png","original_file_url":"https://ucarecdn.com/461bfed9-179f-4e4b-aab2-fbaf132e4fb5/image.png","original_filename":"image.png","size":61645,"url":"https://api.uploadcare.com/files/461bfed9-179f-4e4b-aab2-fbaf132e4fb5/","uuid":"461bfed9-179f-4e4b-aab2-fbaf132e4fb5","variations":null,"content_info":{"mime":{"mime":"image/png","type":"image","subtype":"png"},"image":{"dpi":null,"width":300,"format":"PNG","height":105,"sequence":false,"color_mode":"RGBA","orientation":null,"geo_location":null,"datetime_original":null}},"metadata":{}},{"datetime_removed":null,"datetime_stored":"2022-09-23T11:29:25.358080Z","datetime_uploaded":"2022-09-23T11:29:25.213425Z","is_image":true,"is_ready":true,"mime_type":"image/png","original_file_url":"https://ucarecdn.com/bc37b996-916d-4ed7-b230-fa71a4290cb3/image.png","original_filename":"image.png","size":62167,"url":"https://api.uploadcare.com/files/bc37b996-916d-4ed7-b230-fa71a4290cb3/","uuid":"bc37b996-916d-4ed7-b230-fa71a4290cb3","variations":null,"content_info":{"mime":{"mime":"image/png","type":"image","subtype":"png"},"image":{"dpi":null,"width":300,"format":"PNG","height":105,"sequence":false,"color_mode":"RGBA","orientation":null,"geo_location":null,"datetime_original":null}},"metadata":{}}]}'
  recorded_at: Sun, 02 Oct 2022 10:26:38 GMT
- request:
    method: get
    uri: https://api.uploadcare.com/files/?limit=2&offset=0&ordering=-datetime_uploaded&to=2022-09-28T15:21:26.699767%2B00:00
    body:
      encoding: UTF-8
      string: ''
    headers:
      Content-Type:
      - application/json
      Accept:
      - application/vnd.uploadcare-v0.7+json
      User-Agent:
      - UploadcareRuby/4.0.0/5d5bb5639e3f2df33674 (Ruby/2.6.0)
      Date:
      - Sun, 02 Oct 2022 10:26:38 GMT
      Authorization:
      - Uploadcare 5d5bb5639e3f2df33674:bdf959af683533c1b5c9bcd5cb9b8167f4e39948
      Connection:
      - close
      Host:
      - api.uploadcare.com
  response:
    status:
      code: 200
      message: OK
    headers:
      Date:
      - Sun, 02 Oct 2022 10:26:39 GMT
      Content-Type:
      - application/vnd.uploadcare-v0.7+json
      Content-Length:
      - '1656'
      Connection:
      - close
      Server:
      - nginx
      Warning:
      - '199 Miscellaneous warning: Please use API version 0.5, not 0.7'
      Access-Control-Allow-Origin:
      - https://uploadcare.com
      Vary:
      - Accept
      Allow:
      - GET, HEAD, OPTIONS
      X-Xss-Protection:
      - 1; mode=block
      X-Content-Type-Options:
      - nosniff
      X-Uploadcare-Request-Id:
      - f8b64a49-dfa6-43b2-85f8-244e9341bfd9
      X-Frame-Options:
      - SAMEORIGIN
      X-Robots-Tag:
      - noindex, nofollow, nosnippet, noarchive
    body:
      encoding: ASCII-8BIT
      string: '{"next":"https://api.uploadcare.com/files/?limit=2&ordering=-datetime_uploaded&offset=0&from=2022-09-28T15%3A53%3A36.082137%2B00%3A00","previous":null,"total":129,"totals":{"removed":0,"stored":129,"unstored":0},"per_page":2,"results":[{"datetime_removed":null,"datetime_stored":"2022-10-01T08:31:32.834879Z","datetime_uploaded":"2022-10-01T08:31:32.730675Z","is_image":true,"is_ready":true,"mime_type":"image/png","original_file_url":"https://ucarecdn.com/8f0a2a28-3ed7-481e-b415-ee3cce982aaa/image.png","original_filename":"image.png","size":86745,"url":"https://api.uploadcare.com/files/8f0a2a28-3ed7-481e-b415-ee3cce982aaa/","uuid":"8f0a2a28-3ed7-481e-b415-ee3cce982aaa","variations":null,"content_info":{"mime":{"mime":"image/png","type":"image","subtype":"png"},"image":{"dpi":null,"width":536,"format":"PNG","height":354,"sequence":false,"color_mode":"RGBA","orientation":null,"geo_location":null,"datetime_original":null}},"metadata":{}},{"datetime_removed":null,"datetime_stored":"2022-09-28T15:53:36.188117Z","datetime_uploaded":"2022-09-28T15:53:36.082137Z","is_image":true,"is_ready":true,"mime_type":"image/png","original_file_url":"https://ucarecdn.com/4654a098-ddef-4157-98f2-9c902b699bd8/image.png","original_filename":"image.png","size":4659,"url":"https://api.uploadcare.com/files/4654a098-ddef-4157-98f2-9c902b699bd8/","uuid":"4654a098-ddef-4157-98f2-9c902b699bd8","variations":null,"content_info":{"mime":{"mime":"image/png","type":"image","subtype":"png"},"image":{"dpi":null,"width":274,"format":"PNG","height":367,"sequence":false,"color_mode":"RGBA","orientation":null,"geo_location":null,"datetime_original":null}},"metadata":{}}]}'
  recorded_at: Sun, 02 Oct 2022 10:26:39 GMT
recorded_with: VCR 6.1.0
