---
http_interactions:
- request:
    method: get
    uri: https://api.uploadcare.com/files/?limit=2&ordering=size
    body:
      encoding: UTF-8
      string: ''
    headers:
      Content-Type:
      - application/json
      Accept:
      - application/vnd.uploadcare-v0.5+json
      User-Agent:
      - UploadcareRuby/3.0.1-dev/ecd779dc169645ce3c91 (Ruby/2.6.3)
      Authorization:
      - "<AUTHORIZATION HEADER>"
      Connection:
      - close
      Host:
      - api.uploadcare.com
  response:
    status:
      code: 200
      message: OK
    headers:
      Date:
      - Fri, 13 Mar 2020 15:47:05 GMT
      Content-Type:
      - application/vnd.uploadcare-v0.5+json
      Content-Length:
      - '1384'
      Connection:
      - close
      Server:
      - nginx
      X-Xss-Protection:
      - 1; mode=block
      X-Content-Type-Options:
      - nosniff
      Vary:
      - Accept
      Allow:
      - GET, HEAD, OPTIONS, POST
      Access-Control-Allow-Origin:
      - https://uploadcare.com
      X-Frame-Options:
      - SAMEORIGIN
    body:
      encoding: ASCII-8BIT
      string: '{"next":"https://api.uploadcare.com/files/?ordering=size&from=4394&limit=2&offset=0","previous":null,"total":7,"per_page":2,"results":[{"datetime_removed":null,"datetime_stored":"2020-02-12T12:16:47.326688Z","datetime_uploaded":"2020-02-12T12:16:47.262363Z","image_info":{"color_mode":"RGB","orientation":null,"format":"JPEG","sequence":false,"height":121,"width":100,"geo_location":null,"datetime_original":null,"dpi":[96,96]},"is_image":true,"is_ready":true,"mime_type":"image/jpeg","original_file_url":"https://ucarecdn.com/35b7fcd7-9bca-40e1-99b1-2adcc21c405d/121.jpeg","original_filename":"121.jpeg","size":2744,"url":"https://api.uploadcare.com/files/35b7fcd7-9bca-40e1-99b1-2adcc21c405d/","uuid":"35b7fcd7-9bca-40e1-99b1-2adcc21c405d","source":null},{"datetime_removed":null,"datetime_stored":"2020-02-14T13:30:08.959836Z","datetime_uploaded":"2020-02-14T13:30:08.785811Z","image_info":{"color_mode":"RGB","orientation":null,"format":"JPEG","sequence":false,"height":139,"width":200,"geo_location":null,"datetime_original":null,"dpi":[96,96]},"is_image":true,"is_ready":true,"mime_type":"application/octet-stream","original_file_url":"https://ucarecdn.com/730c5fb9-bbe7-402c-9c26-789e92a5a353/139","original_filename":"139","size":4394,"url":"https://api.uploadcare.com/files/730c5fb9-bbe7-402c-9c26-789e92a5a353/","uuid":"730c5fb9-bbe7-402c-9c26-789e92a5a353","source":null}]}'
    http_version: 
  recorded_at: Fri, 13 Mar 2020 15:47:05 GMT
- request:
    method: get
    uri: https://api.uploadcare.com/files/?from=4394&limit=2&offset=0&ordering=size
    body:
      encoding: UTF-8
      string: ''
    headers:
      Content-Type:
      - application/json
      Accept:
      - application/vnd.uploadcare-v0.5+json
      User-Agent:
      - UploadcareRuby/3.0.1-dev/ecd779dc169645ce3c91 (Ruby/2.6.3)
      Authorization:
      - "<AUTHORIZATION HEADER>"
      Connection:
      - close
      Host:
      - api.uploadcare.com
  response:
    status:
      code: 200
      message: OK
    headers:
      Date:
      - Fri, 13 Mar 2020 15:47:05 GMT
      Content-Type:
      - application/vnd.uploadcare-v0.5+json
      Content-Length:
      - '1430'
      Connection:
      - close
      Server:
      - nginx
      X-Xss-Protection:
      - 1; mode=block
      X-Content-Type-Options:
      - nosniff
      Vary:
      - Accept
      Allow:
      - GET, HEAD, OPTIONS, POST
      Access-Control-Allow-Origin:
      - https://uploadcare.com
      X-Frame-Options:
      - SAMEORIGIN
    body:
      encoding: ASCII-8BIT
      string: '{"next":"https://api.uploadcare.com/files/?ordering=size&limit=2&from=8484&offset=0","previous":"https://api.uploadcare.com/files/?ordering=size&limit=2&to=6852&offset=0","total":7,"per_page":2,"results":[{"datetime_removed":null,"datetime_stored":"2020-03-13T15:34:52.114967Z","datetime_uploaded":"2020-03-13T15:34:51.981093Z","image_info":{"color_mode":"RGB","orientation":null,"format":"JPEG","sequence":false,"height":225,"width":221,"geo_location":null,"datetime_original":null,"dpi":[96,96]},"is_image":true,"is_ready":true,"mime_type":"image/jpeg","original_file_url":"https://ucarecdn.com/fb4fd1cb-b961-44ac-9159-5c90f736d139/225","original_filename":"225","size":6852,"url":"https://api.uploadcare.com/files/fb4fd1cb-b961-44ac-9159-5c90f736d139/","uuid":"fb4fd1cb-b961-44ac-9159-5c90f736d139","source":null},{"datetime_removed":null,"datetime_stored":"2020-03-13T15:34:39.918912Z","datetime_uploaded":"2020-03-13T15:34:39.850626Z","image_info":{"color_mode":"RGB","orientation":null,"format":"JPEG","sequence":false,"height":227,"width":225,"geo_location":null,"datetime_original":null,"dpi":[96,96]},"is_image":true,"is_ready":true,"mime_type":"image/jpeg","original_file_url":"https://ucarecdn.com/21c30070-e9e6-408d-a403-0a34c884790d/227","original_filename":"227","size":8484,"url":"https://api.uploadcare.com/files/21c30070-e9e6-408d-a403-0a34c884790d/","uuid":"21c30070-e9e6-408d-a403-0a34c884790d","source":null}]}'
    http_version: 
  recorded_at: Fri, 13 Mar 2020 15:47:05 GMT
- request:
    method: get
    uri: https://api.uploadcare.com/files/?from=8484&limit=2&offset=0&ordering=size
    body:
      encoding: UTF-8
      string: ''
    headers:
      Content-Type:
      - application/json
      Accept:
      - application/vnd.uploadcare-v0.5+json
      User-Agent:
      - UploadcareRuby/3.0.1-dev/ecd779dc169645ce3c91 (Ruby/2.6.3)
      Authorization:
      - "<AUTHORIZATION HEADER>"
      Connection:
      - close
      Host:
      - api.uploadcare.com
  response:
    status:
      code: 200
      message: OK
    headers:
      Date:
      - Fri, 13 Mar 2020 15:47:06 GMT
      Content-Type:
      - application/vnd.uploadcare-v0.5+json
      Content-Length:
      - '1435'
      Connection:
      - close
      Server:
      - nginx
      X-Xss-Protection:
      - 1; mode=block
      X-Content-Type-Options:
      - nosniff
      Vary:
      - Accept
      Allow:
      - GET, HEAD, OPTIONS, POST
      Access-Control-Allow-Origin:
      - https://uploadcare.com
      X-Frame-Options:
      - SAMEORIGIN
    body:
      encoding: ASCII-8BIT
      string: '{"next":"https://api.uploadcare.com/files/?ordering=size&from=13380&limit=2&offset=0","previous":"https://api.uploadcare.com/files/?ordering=size&limit=2&to=8596&offset=0","total":7,"per_page":2,"results":[{"datetime_removed":null,"datetime_stored":"2020-03-13T15:34:29.967976Z","datetime_uploaded":"2020-03-13T15:34:29.865431Z","image_info":{"color_mode":"RGB","orientation":null,"format":"JPEG","sequence":false,"height":225,"width":225,"geo_location":null,"datetime_original":null,"dpi":[96,96]},"is_image":true,"is_ready":true,"mime_type":"image/jpeg","original_file_url":"https://ucarecdn.com/3a23697f-f407-409f-985b-7dcaffc54a9d/225","original_filename":"225","size":8596,"url":"https://api.uploadcare.com/files/3a23697f-f407-409f-985b-7dcaffc54a9d/","uuid":"3a23697f-f407-409f-985b-7dcaffc54a9d","source":null},{"datetime_removed":null,"datetime_stored":"2020-02-05T14:21:31.618409Z","datetime_uploaded":"2020-02-05T14:21:31.471606Z","image_info":{"color_mode":"RGB","orientation":null,"format":"WEBP","sequence":false,"height":253,"width":480,"geo_location":null,"datetime_original":null,"dpi":null},"is_image":true,"is_ready":true,"mime_type":"image/webp","original_file_url":"https://ucarecdn.com/e7f25edf-511d-4668-8258-0192a73b9f2d/i.webp","original_filename":"i.webp","size":13380,"url":"https://api.uploadcare.com/files/e7f25edf-511d-4668-8258-0192a73b9f2d/","uuid":"e7f25edf-511d-4668-8258-0192a73b9f2d","source":null}]}'
    http_version: 
  recorded_at: Fri, 13 Mar 2020 15:47:06 GMT
- request:
    method: get
    uri: https://api.uploadcare.com/files/?from=13380&limit=2&offset=0&ordering=size
    body:
      encoding: UTF-8
      string: ''
    headers:
      Content-Type:
      - application/json
      Accept:
      - application/vnd.uploadcare-v0.5+json
      User-Agent:
      - UploadcareRuby/3.0.1-dev/ecd779dc169645ce3c91 (Ruby/2.6.3)
      Authorization:
      - "<AUTHORIZATION HEADER>"
      Connection:
      - close
      Host:
      - api.uploadcare.com
  response:
    status:
      code: 200
      message: OK
    headers:
      Date:
      - Fri, 13 Mar 2020 15:47:07 GMT
      Content-Type:
      - application/vnd.uploadcare-v0.5+json
      Content-Length:
      - '764'
      Connection:
      - close
      Server:
      - nginx
      X-Xss-Protection:
      - 1; mode=block
      X-Content-Type-Options:
      - nosniff
      Vary:
      - Accept
      Allow:
      - GET, HEAD, OPTIONS, POST
      Access-Control-Allow-Origin:
      - https://uploadcare.com
      X-Frame-Options:
      - SAMEORIGIN
    body:
      encoding: ASCII-8BIT
      string: '{"next":null,"previous":"https://api.uploadcare.com/files/?ordering=size&limit=2&to=348322&offset=0","total":7,"per_page":2,"results":[{"datetime_removed":null,"datetime_stored":"2020-03-13T15:34:02.760978Z","datetime_uploaded":"2020-03-13T15:34:02.562415Z","image_info":{"color_mode":"RGB","orientation":null,"format":"JPEG","sequence":false,"height":1875,"width":3000,"geo_location":null,"datetime_original":null,"dpi":[300,300]},"is_image":true,"is_ready":true,"mime_type":"image/jpeg","original_file_url":"https://ucarecdn.com/295ae0c8-cd7e-4b3a-bab9-ed3b25c57c69/big.jpeg","original_filename":"big.jpeg","size":348322,"url":"https://api.uploadcare.com/files/295ae0c8-cd7e-4b3a-bab9-ed3b25c57c69/","uuid":"295ae0c8-cd7e-4b3a-bab9-ed3b25c57c69","source":null}]}'
    http_version: 
  recorded_at: Fri, 13 Mar 2020 15:47:07 GMT
recorded_with: VCR 5.0.0
